3 Writing functions – Improving your statistical inferences through Monte Carlo simulations
…
What if we want to vary not only n but also alpha, and see all combinations of them? This previews some skills we’ll learn in a later chapter: defining crossed experiment conditions using expand_grid().

Code

library(tidyr)

# define many values of n and alpha, and then have them 'crossed' to create all permutations of them, using expand_grid()
experiment <- 
  expand_grid(n = 1:20,
              alpha = c(0.01, 0.05, 0.10)) 

# view the combinations used in the experiment
experiment

# A tibble: 60 × 2
       n alpha
   <int> <dbl>
 1     1  0.01
 2     1  0.05
 3     1  0.1 
 4     2  0.01
 5     2  0.05
 6     2  0.1 
 7     3  0.01
 8     3  0.05
 9     3  0.1 
10     4  0.01
# ℹ 50 more rows

Code

results <- experiment |>  
  # use mutate to create a new column, fpr, by calling the custom function for each row
  # use a map2_ function as there are two inputs, n and alpha
  # these are passed by location, .x to the first argument, .y to the second
  mutate(fpr = map2_dbl(.x = n, 
                        .y = alpha,
                        .f = calc_aggregate_fpr))

results

# A tibble: 60 × 3
       n alpha    fpr
   <int> <dbl>  <dbl>
 1     1  0.01 0.0100
 2     1  0.05 0.0500
 3     1  0.1  0.1   
 4     2  0.01 0.0199
 5     2  0.05 0.0975
 6     2  0.1  0.19  
 7     3  0.01 0.0297
 8     3  0.05 0.143 
 9     3  0.1  0.271 
10     4  0.01 0.0394
# ℹ 50 more rows
…
