6 Creating simulation experiments – Improving your statistical inferences through Monte Carlo simulations
…
Suppose we want to make a more elaborate experiment, with n_per_condition ranging from 50 to 100 in steps of 10 participants, and with mean_intervention ranging from .1 to .5 in steps of .1 (we can do this using seq(), which creates a sequence of numbers).

Code

experiment_parameters <- expand_grid(
  n_per_condition = seq(from = 50, to = 100, by = 10),
  mean_intervention = seq(from = 0.1, to = 0.5, by = 0.1),
  sd = c(0.5, 1),
  mean_control = c(0, 0.1)
)

experiment_parameters 

# A tibble: 120 × 4
   n_per_condition mean_intervention    sd mean_control
             <dbl>             <dbl> <dbl>        <dbl>
 1              50               0.1   0.5          0  
 2              50               0.1   0.5          0.1
 3              50               0.1   1            0  
 4              50               0.1   1            0.1
 5              50               0.2   0.5          0  
 6              50               0.2   0.5          0.1
 7              50               0.2   1            0  
 8              50               0.2   1            0.1
 9              50               0.3   0.5          0  
10              50               0.3   0.5          0.1
# ℹ 110 more rows
…
How many rows does the resulting grid have? Verify using nrow() and distinct().

6.9.2 Exercise 2: Filtering implausible combinations

Starting from the grid below, use filter() to remove any rows where n_per_condition is less than 50 and mean_intervention is less than 0.3. How many rows remain?

Code

expand_grid(
  n_per_condition = c(20, 50, 100, 200),
  mean_intervention = c(0.1, 0.3, 0.5),
  sd = c(0.5, 1)
)

# A tibble: 24 × 3
   n_per_condition mean_intervention    sd
             <dbl>             <dbl> <dbl>
 1              20               0.1   0.5
 2              20               0.1   1  
 3              20               0.3   0.5
 4              20               0.3   1  
 5              20               0.5   0.5
 6              20               0.5   1  
 7              50               0.1   0.5
 8              50               0.1   1  
 9              50               0.3   0.5
10              50               0.3   1  
# ℹ 14 more rows
…
