6 Mapping over functions – Improving your statistical inferences through Monte Carlo simulations
…
simulation_results

# A tibble: 8,000 × 7
   iteration n_per_condition mean_intervention mean_control    sd generated_data
       <int>           <dbl>             <dbl>        <dbl> <dbl> <list>        
 1         1              20                 0            0     1 <tibble>      
 2         2              20                 0            0     1 <tibble>      
 3         3              20                 0            0     1 <tibble>      
 4         4              20                 0            0     1 <tibble>      
 5         5              20                 0            0     1 <tibble>      
 6         6              20                 0            0     1 <tibble>      
 7         7              20                 0            0     1 <tibble>      
 8         8              20                 0            0     1 <tibble>      
 9         9              20                 0            0     1 <tibble>      
10        10              20                 0            0     1 <tibble>      
# ℹ 7,990 more rows
# ℹ 1 more variable: p <dbl>
…
# use pmap() across this
simulation_results <- experiment_parameters |>
  mutate(
    generated_data = pmap(
      .l = list(n_per_condition, mean_control, mean_intervention, sd),
      .f = generate_data),
    results = map(generated_data, analyze)
  ) |>
  unnest(results)

simulation_results

# A tibble: 1,600 × 7
   iteration n_per_condition mean_intervention mean_control    sd generated_data
       <int>           <dbl>             <dbl>        <dbl> <dbl> <list>        
 1         1              20               0            0     0.5 <tibble>      
 2         1              20               0            0     1   <tibble>      
 3         1              20               0            0.1   0.5 <tibble>      
 4         1              20               0            0.1   1   <tibble>      
 5         1              20               0.5          0     0.5 <tibble>      
 6         1              20               0.5          0     1   <tibble>      
 7         1              20               0.5          0.1   0.5 <tibble>      
 8         1              20               0.5          0.1   1   <tibble>      
 9         1              50               0            0     0.5 <tibble>      
10         1              50               0            0     1   <tibble>      
# ℹ 1,590 more rows
# ℹ 1 more variable: p <dbl>
…
Code

set.seed(42)

experiment_parameters <- expand_grid(
  n_per_condition = c(20, 50, 100),
  mean_intervention = c(0, 0.2, 0.5),
  iteration = 1:1000
) |>
  mutate(mean_control = 0,
         sd = 1)

experiment_parameters

# A tibble: 9,000 × 5
   n_per_condition mean_intervention iteration mean_control    sd
             <dbl>             <dbl>     <int>        <dbl> <dbl>
 1              20                 0         1            0     1
 2              20                 0         2            0     1
 3              20                 0         3            0     1
 4              20                 0         4            0     1
 5              20                 0         5            0     1
 6              20                 0         6            0     1
 7              20                 0         7            0     1
 8              20                 0         8            0     1
 9              20                 0         9            0     1
10              20                 0        10            0     1
# ℹ 8,990 more rows
…
Code

simulation_results <- experiment_parameters |>
  mutate(
    generated_data = pmap(
      .l = list(n_per_condition, mean_control, mean_intervention, sd), 
      .f = generate_data),
    results = map(generated_data, analyze)
  ) |>
  unnest(results)

simulation_results

# A tibble: 9,000 × 7
   n_per_condition mean_intervention iteration mean_control    sd generated_data
             <dbl>             <dbl>     <int>        <dbl> <dbl> <list>        
 1              20                 0         1            0     1 <tibble>      
 2              20                 0         2            0     1 <tibble>      
 3              20                 0         3            0     1 <tibble>      
 4              20                 0         4            0     1 <tibble>      
 5              20                 0         5            0     1 <tibble>      
 6              20                 0         6            0     1 <tibble>      
 7              20                 0         7            0     1 <tibble>      
 8              20                 0         8            0     1 <tibble>      
 9              20                 0         9            0     1 <tibble>      
10              20                 0        10            0     1 <tibble>      
# ℹ 8,990 more rows
# ℹ 1 more variable: p <dbl>
…
