5 General structure of a simulation study – Improving your statistical inferences through Monte Carlo simulations
…
Code

# add these iterations to the expand_grid() call
grid <- expand_grid(
  time_point = c("pre", "post"),
  condition = c("control", "intervention"),
  iteration = iterations
) 

grid

# A tibble: 400 × 3
   time_point condition iteration
   <chr>      <chr>         <dbl>
 1 pre        control           1
 2 pre        control           2
 3 pre        control           3
 4 pre        control           4
 5 pre        control           5
 6 pre        control           6
 7 pre        control           7
 8 pre        control           8
 9 pre        control           9
10 pre        control          10
# ℹ 390 more rows

Note that I can more simply specify the iterations seq(from = 1, to = 100, by = 1) as 1:100.

Code

# add these iterations to the expand_grid() call
grid <- expand_grid(
  time_point = c("pre", "post"),
  condition = c("control", "intervention"),
  iteration = 1:100 # note this is a series not an integer, i.e., "1:100" not "100", as "100" would mean just one iteration called "100".
) 

grid

# A tibble: 400 × 3
   time_point condition iteration
   <chr>      <chr>         <int>
 1 pre        control           1
 2 pre        control           2
 3 pre        control           3
 4 pre        control           4
 5 pre        control           5
 6 pre        control           6
 7 pre        control           7
 8 pre        control           8
 9 pre        control           9
10 pre        control          10
# ℹ 390 more rows
…
Code

simulation <- experiment_parameters |>
  mutate(generated_data = future_pmap(.l = list(n_per_condition = n_per_condition, 
                                                mean_control = mean_control,
                                                mean_intervention = mean_intervention,
                                                sd = sd),
                                      .f = generate_data,
                                      .progress = TRUE,
                                      .options = furrr_options(seed = TRUE)))

simulation

# A tibble: 200 × 6
   n_per_condition mean_control mean_intervention    sd iteration generated_data
             <dbl>        <dbl>             <dbl> <dbl>     <int> <list>        
 1              50            0                 0     1         1 <tibble>      
 2              50            0                 0     1         2 <tibble>      
 3              50            0                 0     1         3 <tibble>      
 4              50            0                 0     1         4 <tibble>      
 5              50            0                 0     1         5 <tibble>      
 6              50            0                 0     1         6 <tibble>      
 7              50            0                 0     1         7 <tibble>      
 8              50            0                 0     1         8 <tibble>      
 9              50            0                 0     1         9 <tibble>      
10              50            0                 0     1        10 <tibble>      
# ℹ 190 more rows
…
simulation

# A tibble: 200 × 7
   n_per_condition mean_control mean_intervention    sd iteration generated_data
             <dbl>        <dbl>             <dbl> <dbl>     <int> <list>        
 1              50            0                 0     1         1 <tibble>      
 2              50            0                 0     1         2 <tibble>      
 3              50            0                 0     1         3 <tibble>      
 4              50            0                 0     1         4 <tibble>      
 5              50            0                 0     1         5 <tibble>      
 6              50            0                 0     1         6 <tibble>      
 7              50            0                 0     1         7 <tibble>      
 8              50            0                 0     1         8 <tibble>      
 9              50            0                 0     1         9 <tibble>      
10              50            0                 0     1        10 <tibble>      
# ℹ 190 more rows
# ℹ 1 more variable: results <list>
…
