4 General structure of a simulation study – Improving your statistical inferences through Monte Carlo simulations
…
data_control <- 
  tibble(condition = "control",
         score = rnorm(n = 50, mean = 0, sd = 1))

data_intervention <- 
  tibble(condition = "intervention",
         score = rnorm(n = 50, mean = 0.50, sd = 1))

data_combined <- bind_rows(data_control,
                           data_intervention)

data_combined

# A tibble: 100 × 2
   condition   score
   <chr>       <dbl>
 1 control    1.60  
 2 control    0.835 
 3 control    1.03  
 4 control   -1.74  
 5 control   -2.06  
 6 control   -2.01  
 7 control   -0.641 
 8 control    2.08  
 9 control   -1.23  
10 control   -0.0189
# ℹ 90 more rows
…
data_control <- 
  tibble(condition = "control",
         score = rnorm(n = n_per_condition, mean = mean_control, sd = sd))

data_intervention <- 
  tibble(condition = "intervention",
         score = rnorm(n = n_per_condition, mean = mean_intervention, sd = sd))

data_combined <- bind_rows(data_control,
                           data_intervention)

# view the generated data
data_combined

# A tibble: 100 × 2
   condition  score
   <chr>      <dbl>
 1 control   -1.87 
 2 control   -2.59 
 3 control    2.58 
 4 control    0.863
 5 control    0.624
 6 control   -1.73 
 7 control   -0.904
 8 control   -1.61 
 9 control   -0.390
10 control   -1.81 
# ℹ 90 more rows
…
  return(data_combined)
}

# call the function with example arguments
generated_data <- generate_data(n_per_condition = 50,
                                mean_control = 0,
                                mean_intervention = 0.5,
                                sd = 1)

# view the generated data
generated_data

# A tibble: 100 × 2
   condition   score
   <chr>       <dbl>
 1 control   -0.365 
 2 control   -1.39  
 3 control    0.605 
 4 control    0.301 
 5 control   -0.211 
 6 control    0.0391
 7 control   -0.643 
 8 control   -0.283 
 9 control   -0.107 
10 control   -0.960 
# ℹ 90 more rows
…
