15 Standardized effect sizes and range restriction – Improving your statistical inferences through Monte Carlo simulations
…
For each of the two datasets, please calculate:

The unstandardized difference in means between the groups. To do this, calculate the mean BDI-II score in each condition (control vs intervention) and then the difference between the two means.

The standardized mean difference (Cohen’s d) between the two groups (e.g., using effsize::cohen.d()).

Does the intervention work? Think about the simulated population effect.

Code

# datasets:
subset_no_preselection

# A tibble: 200 × 4
        id recruitment        condition    bdi_score
     <dbl> <chr>              <fct>            <dbl>
 1 2527472 General population control              2
 2 2527472 General population intervention        -3
 3 2516002 General population control              9
 4 2516002 General population intervention         4
 5 2553222 General population control             33
 6 2553222 General population intervention        28
 7 2551678 General population control             26
 8 2551678 General population intervention        21
 9 2555281 General population control             13
10 2555281 General population intervention         8
# ℹ 190 more rows

Code

subset_preselection_for_severe

# A tibble: 200 × 4
        id recruitment         condition    bdi_score
     <dbl> <chr>               <fct>            <dbl>
 1 2519655 'Severe' depression control             41
 2 2519655 'Severe' depression intervention        36
 3 2551157 'Severe' depression control             32
 4 2551157 'Severe' depression intervention        27
 5 2514051 'Severe' depression control             40
 6 2514051 'Severe' depression intervention        35
 7 2513857 'Severe' depression control             42
 8 2513857 'Severe' depression intervention        37
 9 2559761 'Severe' depression control             38
10 2559761 'Severe' depression intervention        33
# ℹ 190 more rows
…
Again, for each of the two datasets, please calculate:

This is the unstandaridzied difference in means between the groups. To do this, calculate the mean BDI-II score in each condition (control vs intervention) and then the difference between the two means.

The standardized mean difference (Cohen’s d) between the two groups (e.g., using effsize::cohen.d()).

Does the intervention work? Think about the simulated population effect.

Code

# datasets:
subset_no_preselection

# A tibble: 200 × 4
        id recruitment        condition    bdi_score
     <dbl> <chr>              <fct>            <dbl>
 1 2506327 General population control             42
 2 2506327 General population intervention        37
 3 2548703 General population control             11
 4 2548703 General population intervention         6
 5 2551646 General population control             17
 6 2551646 General population intervention        12
 7 2512827 General population control              6
 8 2512827 General population intervention         1
 9 2544327 General population control              0
10 2544327 General population intervention        -5
# ℹ 190 more rows

Code

subset_preselection_for_severe

# A tibble: 200 × 4
        id recruitment         condition    bdi_score
     <dbl> <chr>               <fct>            <dbl>
 1 2518232 'Severe' depression control             38
 2 2518232 'Severe' depression intervention        35
 3 2512966 'Severe' depression control             29
 4 2512966 'Severe' depression intervention        26
 5 2550823 'Severe' depression control             37
 6 2550823 'Severe' depression intervention        34
 7 2519655 'Severe' depression control             41
 8 2519655 'Severe' depression intervention        38
 9 2543945 'Severe' depression control             31
10 2543945 'Severe' depression intervention        28
# ℹ 190 more rows
…
